module pscd_ex2

require (
	github.com/choleraehyq/gofunctools v0.0.0-20170311135431-c5e9260901e5 // indirect
	github.com/deckarep/golang-set v0.0.0-20180831180637-cbaa98ba5575 // indirect
	github.com/google/uuid v1.0.0 // indirect
	github.com/pspaces/gospace v0.0.0-20180429192141-d2861cf77494 // indirect
)
